%YAML 1.1
%TAG !u! tag:unity3d.com,2011:
--- !u!114 &11400000
MonoBehaviour:
  m_ObjectHideFlags: 0
  m_CorrespondingSourceObject: {fileID: 0}
  m_PrefabInstance: {fileID: 0}
  m_PrefabAsset: {fileID: 0}
  m_GameObject: {fileID: 0}
  m_Enabled: 1
  m_EditorHideFlags: 0
  m_Script: {fileID: 11500000, guid: ae649d3f2ad6a475dbf5a30329720fd1, type: 3}
  m_Name: Purchase id3
  m_EditorClassIdentifier: 
  id: 3
  moneyType: 3
  price: 0.99
  increaseMoneyType: 1
  increaseValue: 10
  sprite: {fileID: 21300000, guid: 23df1b0e078a2469387b57e9cc37509a, type: 3}
  buttonSprite: {fileID: 21300012, guid: 23df1b0e078a2469387b57e9cc37509a, type: 3}
