%YAML 1.1
%TAG !u! tag:unity3d.com,2011:
--- !u!114 &11400000
MonoBehaviour:
  m_ObjectHideFlags: 0
  m_CorrespondingSourceObject: {fileID: 0}
  m_PrefabInstance: {fileID: 0}
  m_PrefabAsset: {fileID: 0}
  m_GameObject: {fileID: 0}
  m_Enabled: 1
  m_EditorHideFlags: 0
  m_Script: {fileID: 11500000, guid: 85fd4020629834b63aa463fde772120e, type: 3}
  m_Name: Tower id1
  m_EditorClassIdentifier: 
  objectType: 1
  targetType: 2
  id: 1
  health: 30
  curHealth: 30
  damage: 10
  speed: 3
  armor: 0
  energy: 5
  pointForDestruction: 2
  obj: {fileID: 0}
  prefab: {fileID: 4620217531250261888, guid: fa2a43f5ab2614246874e9df18424899, type: 3}
