%YAML 1.1
%TAG !u! tag:unity3d.com,2011:
--- !u!114 &11400000
MonoBehaviour:
  m_ObjectHideFlags: 0
  m_CorrespondingSourceObject: {fileID: 0}
  m_PrefabInstance: {fileID: 0}
  m_PrefabAsset: {fileID: 0}
  m_GameObject: {fileID: 0}
  m_Enabled: 1
  m_EditorHideFlags: 0
  m_Script: {fileID: 11500000, guid: 85fd4020629834b63aa463fde772120e, type: 3}
  m_Name: Tower id2
  m_EditorClassIdentifier: 
  objectType: 1
  targetType: 2
  id: 2
  health: 20
  curHealth: 20
  damage: 20
  speed: 4
  armor: 0
  energy: 5
  pointForDestruction: 3
  obj: {fileID: 0}
  prefab: {fileID: 4620217531250261888, guid: 9f2ed7595041b45a2a9db6e275a72497, type: 3}
