%YAML 1.1
%TAG !u! tag:unity3d.com,2011:
--- !u!114 &11400000
MonoBehaviour:
  m_ObjectHideFlags: 0
  m_CorrespondingSourceObject: {fileID: 0}
  m_PrefabInstance: {fileID: 0}
  m_PrefabAsset: {fileID: 0}
  m_GameObject: {fileID: 0}
  m_Enabled: 1
  m_EditorHideFlags: 0
  m_Script: {fileID: 11500000, guid: 85fd4020629834b63aa463fde772120e, type: 3}
  m_Name: Zombo id1
  m_EditorClassIdentifier: 
  objectType: 0
  targetType: 0
  id: 1
  health: 10
  curHealth: 10
  damage: 5
  speed: 2
  armor: 1
  energy: 2
  pointForDestruction: 1
  obj: {fileID: 0}
  prefab: {fileID: 4489270440757141401, guid: 47703de18b43c8a46b000d0ab87d5e79, type: 3}
