%YAML 1.1
%TAG !u! tag:unity3d.com,2011:
--- !u!114 &11400000
MonoBehaviour:
  m_ObjectHideFlags: 0
  m_CorrespondingSourceObject: {fileID: 0}
  m_PrefabInstance: {fileID: 0}
  m_PrefabAsset: {fileID: 0}
  m_GameObject: {fileID: 0}
  m_Enabled: 1
  m_EditorHideFlags: 0
  m_Script: {fileID: 11500000, guid: 8f9ec74ee19d44bdabe5220769933226, type: 3}
  m_Name: SpawnerSpeed id1
  m_EditorClassIdentifier: 
  id: 0
  moneyType: 1
  price: 100
  characteristicType: 4
  increasedValue: 3
  upgradeTargetType: 2
  upgradeTypeID: 1
