%YAML 1.1
%TAG !u! tag:unity3d.com,2011:
--- !u!114 &11400000
MonoBehaviour:
  m_ObjectHideFlags: 0
  m_CorrespondingSourceObject: {fileID: 0}
  m_PrefabInstance: {fileID: 0}
  m_PrefabAsset: {fileID: 0}
  m_GameObject: {fileID: 0}
  m_Enabled: 1
  m_EditorHideFlags: 0
  m_Script: {fileID: 11500000, guid: 68d4d7c880d514213a22c27a3caddf81, type: 3}
  m_Name: PlayersDataKeeper
  m_EditorClassIdentifier: 
  energy: 300
  selectedZomboID: 0
  selectedPlanetID: 0
  coin: 0
  diamond: 0
  kCoin: 1
  kDiamond: 1
  kSpawnerSpeed: 1
  kEnergy: 1
  boughtenZombos: []
  boughtenUpgrades: []
  boughtenPlayerUpgrades: []
  boughtenPlanets: []
  availableZombos: 
  availablePlanets: 
  currentWinsOnPlanet: 
  musicOn: 1
  effectsOn: 1
  flagIndex: 18
